------------------------------------------------------------------------
r1051246 | scripty | 2009-11-19 04:17:05 +0000 (Thu, 19 Nov 2009) | 1 line

SVN_SILENT made messages (.desktop file)
------------------------------------------------------------------------
r1052967 | whiting | 2009-11-22 21:54:06 +0000 (Sun, 22 Nov 2009) | 2 lines

BUG: 214238\
backport bug fix
------------------------------------------------------------------------
r1054482 | scripty | 2009-11-26 04:12:31 +0000 (Thu, 26 Nov 2009) | 1 line

SVN_SILENT made messages (.desktop file)
------------------------------------------------------------------------
