------------------------------------------------------------------------
r1223550 | scripty | 2011-03-04 02:38:20 +1300 (Fri, 04 Mar 2011) | 1 line

SVN_SILENT made messages (.desktop file)
------------------------------------------------------------------------
r1224165 | scripty | 2011-03-09 03:47:53 +1300 (Wed, 09 Mar 2011) | 1 line

SVN_SILENT made messages (.desktop file)
------------------------------------------------------------------------
r1224860 | lueck | 2011-03-15 00:37:48 +1300 (Tue, 15 Mar 2011) | 1 line

backport from trunk r1224859: add second arg with with name of translation catalog to make the klinkstatuspart translated
------------------------------------------------------------------------
