------------------------------------------------------------------------
r1135653 | cfeck | 2010-06-08 09:00:13 +1200 (Tue, 08 Jun 2010) | 5 lines

Send correct mouse buttons when they are remapped (backport r1135647)

CCBUG: 225382
FIXED-IN: 4.4.5

------------------------------------------------------------------------
r1137236 | scripty | 2010-06-12 14:12:01 +1200 (Sat, 12 Jun 2010) | 1 line

SVN_SILENT made messages (.desktop file)
------------------------------------------------------------------------
