------------------------------------------------------------------------
r1090343 | scripty | 2010-02-15 04:26:18 +0000 (Mon, 15 Feb 2010) | 1 line

SVN_SILENT made messages (.desktop file)
------------------------------------------------------------------------
r1092498 | scripty | 2010-02-19 04:25:05 +0000 (Fri, 19 Feb 2010) | 1 line

SVN_SILENT made messages (.desktop file)
------------------------------------------------------------------------
