------------------------------------------------------------------------
r877938 | tmcguire | 2008-10-30 18:33:09 +0000 (Thu, 30 Oct 2008) | 12 lines

Backport r877936 by tmcguire from trunk to the 4.1 branch:

Merged revisions 877930 via svnmerge from 
svn+ssh://tmcguire@svn.kde.org/home/kde/branches/kdepim/enterprise4/kdepim

........
  r877930 | tilladam | 2008-10-30 19:06:09 +0100 (Thu, 30 Oct 2008) | 1 line
  
  Small thing, big consequences. This missing trimmed() led to ' 35' being parsed to 0, by QString::toULong, which lost the UID in the index, which caused it to be treated as changed, uploaded, not found locally under the old UID, but not explicitely deleted and thus re-downloaded for safety reasons, in other words, random mail duplication. Epecially on index regeneration. And who knows where else. Should actually have been visible with the old index backend as well... 
........


------------------------------------------------------------------------
r877940 | tmcguire | 2008-10-30 18:37:56 +0000 (Thu, 30 Oct 2008) | 237 lines

Backport more Kleopatra bugfixes which came from e4.
--
Merged revisions 877072-877074,877076-877084,877086,877097-877098,877130,877132-877133,877135 via svnmerge from 
svn+ssh://tmcguire@svn.kde.org/home/kde/trunk/KDE/kdepim

................
  r877072 | tmcguire | 2008-10-28 17:47:38 +0100 (Tue, 28 Oct 2008) | 9 lines
  
  Merged revisions 875182 via svnmerge from 
  svn+ssh://tmcguire@svn.kde.org/home/kde/branches/kdepim/enterprise4/kdepim
  
  ........
    r875182 | tilladam | 2008-10-23 17:08:30 +0200 (Thu, 23 Oct 2008) | 1 line
    
    Disable the certificate selection button if no protocol is active and only show the selection comboboxes in that dialog for the chosen protocols. BUG: 172786
  ........
................
  r877073 | tmcguire | 2008-10-28 17:48:30 +0100 (Tue, 28 Oct 2008) | 10 lines
  
  Merged revisions 875183 via svnmerge from 
  svn+ssh://tmcguire@svn.kde.org/home/kde/branches/kdepim/enterprise4/kdepim
  
  ........
    r875183 | mutz | 2008-10-23 17:08:49 +0200 (Thu, 23 Oct 2008) | 2 lines
    
    Hack to support SENDER --protocol. We really need to make SENDER a command some time in the future...
    Also, try to make the message box not appear in the background.
  ........
................
  r877074 | tmcguire | 2008-10-28 17:49:09 +0100 (Tue, 28 Oct 2008) | 9 lines
  
  Merged revisions 875195 via svnmerge from 
  svn+ssh://tmcguire@svn.kde.org/home/kde/branches/kdepim/enterprise4/kdepim
  
  ........
    r875195 | mutz | 2008-10-23 18:02:33 +0200 (Thu, 23 Oct 2008) | 1 line
    
    Oops, secret key files are .12, not .der
  ........
................
  r877076 | tmcguire | 2008-10-28 17:49:51 +0100 (Tue, 28 Oct 2008) | 11 lines
  
  Merged revisions 875204 via svnmerge from 
  svn+ssh://tmcguire@svn.kde.org/home/kde/branches/kdepim/enterprise4/kdepim
  
  ........
    r875204 | mutz | 2008-10-23 19:10:10 +0200 (Thu, 23 Oct 2008) | 4 lines
    
    Fix filename filter, and allow to save as binary, too
    BUG:172787
    BUG:172531
  ........
................
  r877077 | tmcguire | 2008-10-28 17:50:24 +0100 (Tue, 28 Oct 2008) | 9 lines
  
  Merged revisions 875458 via svnmerge from 
  svn+ssh://tmcguire@svn.kde.org/home/kde/branches/kdepim/enterprise4/kdepim
  
  ........
    r875458 | tilladam | 2008-10-24 16:09:43 +0200 (Fri, 24 Oct 2008) | 1 line
    
    Add an additional save to the passphrase change command. Should make it work with current gpg, according to Werner.
  ........
................
  r877078 | tmcguire | 2008-10-28 17:50:50 +0100 (Tue, 28 Oct 2008) | 9 lines
  
  Merged revisions 875459 via svnmerge from 
  svn+ssh://tmcguire@svn.kde.org/home/kde/branches/kdepim/enterprise4/kdepim
  
  ........
    r875459 | mutz | 2008-10-24 16:12:08 +0200 (Fri, 24 Oct 2008) | 1 line
    
    fix
  ........
................
  r877079 | tmcguire | 2008-10-28 17:51:15 +0100 (Tue, 28 Oct 2008) | 10 lines
  
  Merged revisions 875462 via svnmerge from 
  svn+ssh://tmcguire@svn.kde.org/home/kde/branches/kdepim/enterprise4/kdepim
  
  ........
    r875462 | mutz | 2008-10-24 16:15:24 +0200 (Fri, 24 Oct 2008) | 2 lines
    
    This warning doesn't make sense if we don't have the certificate to compare email addresses against.
    BUG:173437
  ........
................
  r877080 | tmcguire | 2008-10-28 17:51:39 +0100 (Tue, 28 Oct 2008) | 10 lines
  
  Merged revisions 875502 via svnmerge from 
  svn+ssh://tmcguire@svn.kde.org/home/kde/branches/kdepim/enterprise4/kdepim
  
  ........
    r875502 | mutz | 2008-10-24 18:35:46 +0200 (Fri, 24 Oct 2008) | 2 lines
    
    Some keyservers don't include the fingerprint in their answer; use the key id instead in this case.
    BUG:170909
  ........
................
  r877081 | tmcguire | 2008-10-28 17:52:04 +0100 (Tue, 28 Oct 2008) | 10 lines
  
  Merged revisions 876380 via svnmerge from 
  svn+ssh://tmcguire@svn.kde.org/home/kde/branches/kdepim/enterprise4/kdepim
  
  ........
    r876380 | mutz | 2008-10-27 11:25:24 +0100 (Mon, 27 Oct 2008) | 2 lines
    
    Fix output corruption d/t using Q{Text,Data}Stream on already formatted data.
    BUG:172531
  ........
................
  r877082 | tmcguire | 2008-10-28 17:52:29 +0100 (Tue, 28 Oct 2008) | 12 lines
  
  Merged revisions 876554 via svnmerge from 
  svn+ssh://tmcguire@svn.kde.org/home/kde/branches/kdepim/enterprise4/kdepim
  
  ........
    r876554 | mutz | 2008-10-27 14:51:31 +0100 (Mon, 27 Oct 2008) | 4 lines
    
    Filter: +.gpg -.der (2nd)
    Also, separate human- from machine-readable part to not upset translations.
    BUG:173677
    BUG:173676
  ........
................
  r877083 | tmcguire | 2008-10-28 17:52:58 +0100 (Tue, 28 Oct 2008) | 10 lines
  
  Merged revisions 876866 via svnmerge from 
  svn+ssh://tmcguire@svn.kde.org/home/kde/branches/kdepim/enterprise4/kdepim
  
  ........
    r876866 | mutz | 2008-10-28 11:14:55 +0100 (Tue, 28 Oct 2008) | 2 lines
    
    Use the session title only for inputs - fixes
    BUG:172720
  ........
................
  r877084 | tmcguire | 2008-10-28 17:53:32 +0100 (Tue, 28 Oct 2008) | 9 lines
  
  Merged revisions 877028 via svnmerge from 
  svn+ssh://tmcguire@svn.kde.org/home/kde/branches/kdepim/enterprise4/kdepim
  
  ........
    r877028 | mutz | 2008-10-28 15:46:59 +0100 (Tue, 28 Oct 2008) | 1 line
    
    Don't forget to set the verification mode. Fixes all opaque message verification.
  ........
................
  r877086 | tmcguire | 2008-10-28 17:56:19 +0100 (Tue, 28 Oct 2008) | 13 lines
  
  Merged revisions 875188,875505 via svnmerge from 
  svn+ssh://tmcguire@svn.kde.org/home/kde/branches/kdepim/enterprise4/kdepim
  
  ........
    r875188 | mutz | 2008-10-23 17:28:20 +0200 (Thu, 23 Oct 2008) | 1 line
    
    This is becoming Kleopatra 2.0.1
  ........
    r875505 | mutz | 2008-10-24 18:50:43 +0200 (Fri, 24 Oct 2008) | 1 line
    
    This will be Kleopatra 2.0.2
  ........
................
  r877097 | tmcguire | 2008-10-28 18:18:44 +0100 (Tue, 28 Oct 2008) | 10 lines
  
  Merged revisions 877087 via svnmerge from 
  svn+ssh://tmcguire@svn.kde.org/home/kde/branches/kdepim/enterprise4/kdepim
  
  ........
    r877087 | mutz | 2008-10-28 18:10:04 +0100 (Tue, 28 Oct 2008) | 2 lines
    
    Hide the splashscreen after 5s, just in case there's a pinentry waiting in the background.
    BUG:173435
  ........
................
  r877098 | tmcguire | 2008-10-28 18:21:15 +0100 (Tue, 28 Oct 2008) | 9 lines
  
  Merged revisions 877093 via svnmerge from 
  svn+ssh://tmcguire@svn.kde.org/home/kde/branches/kdepim/enterprise4/kdepim
  
  ........
    r877093 | mutz | 2008-10-28 18:16:08 +0100 (Tue, 28 Oct 2008) | 1 line
    
    paranoia++
  ........
................
  r877130 | tmcguire | 2008-10-28 19:06:20 +0100 (Tue, 28 Oct 2008) | 13 lines
  
  Merged revisions 877101,877103 via svnmerge from 
  svn+ssh://tmcguire@svn.kde.org/home/kde/branches/kdepim/enterprise4/kdepim
  
  ........
    r877101 | mutz | 2008-10-28 18:23:47 +0100 (Tue, 28 Oct 2008) | 1 line
    
    These isNull() should be isEmpty() (too much gpgme++ exposure? :)
  ........
    r877103 | mutz | 2008-10-28 18:25:10 +0100 (Tue, 28 Oct 2008) | 1 line
    
    These isNull() should be isEmpty() (too much gpgme++ exposure? :)
  ........
................
  r877132 | tmcguire | 2008-10-28 19:13:59 +0100 (Tue, 28 Oct 2008) | 10 lines
  
  Merged revisions 877128 via svnmerge from 
  svn+ssh://tmcguire@svn.kde.org/home/kde/branches/kdepim/enterprise4/kdepim
  
  ........
    r877128 | mutz | 2008-10-28 19:03:48 +0100 (Tue, 28 Oct 2008) | 2 lines
    
    Improve text by not repeating the user id/fingerprint in the message.
    BUG:173437
  ........
................
  r877133 | tmcguire | 2008-10-28 19:15:39 +0100 (Tue, 28 Oct 2008) | 10 lines
  
  Merged revisions 877129 via svnmerge from 
  svn+ssh://tmcguire@svn.kde.org/home/kde/branches/kdepim/enterprise4/kdepim
  
  ........
    r877129 | mutz | 2008-10-28 19:06:15 +0100 (Tue, 28 Oct 2008) | 2 lines
    
    Don't warn about the certificate not containing the sender email if we don't have the certificate in the local keystore anyway.
    BUG:173437
  ........
................
  r877135 | tmcguire | 2008-10-28 19:16:34 +0100 (Tue, 28 Oct 2008) | 9 lines
  
  Merged revisions 877099 via svnmerge from 
  svn+ssh://tmcguire@svn.kde.org/home/kde/branches/kdepim/enterprise4/kdepim
  
  ........
    r877099 | mutz | 2008-10-28 18:22:43 +0100 (Tue, 28 Oct 2008) | 1 line
    
    This will become Kleo 2.0.3
  ........
................

------------------------------------------------------------------------
r878318 | djarvie | 2008-10-31 21:50:35 +0000 (Fri, 31 Oct 2008) | 2 lines

Fix minimum size hint

------------------------------------------------------------------------
r878551 | djarvie | 2008-11-01 13:22:53 +0000 (Sat, 01 Nov 2008) | 1 line

Make scrolling work again when dialogue is too hight to fit screen
------------------------------------------------------------------------
r878633 | djarvie | 2008-11-01 14:27:38 +0000 (Sat, 01 Nov 2008) | 1 line

Update for 4.1.3
------------------------------------------------------------------------
r878764 | djarvie | 2008-11-01 19:06:01 +0000 (Sat, 01 Nov 2008) | 2 lines

Fix initialisation of dialogue size, and store correct size, when scrolling.
Fix random scroll when switching tabs.
------------------------------------------------------------------------
r878941 | scripty | 2008-11-02 07:28:51 +0000 (Sun, 02 Nov 2008) | 1 line

SVN_SILENT made messages (.desktop file)
------------------------------------------------------------------------
r879180 | winterz | 2008-11-02 15:55:23 +0000 (Sun, 02 Nov 2008) | 7 lines

backport SVN commit 879176 by winterz:

Fix bug "korganizer crashes on saving new calendar"
caused by an assert from a bad porting of KUrl.

Also, change the default save extension to .ics instead of .vcs.

------------------------------------------------------------------------
r879230 | djarvie | 2008-11-02 19:40:30 +0000 (Sun, 02 Nov 2008) | 1 line

Fix height of Preferences dialogue when too high to fit screen
------------------------------------------------------------------------
r879827 | scripty | 2008-11-04 07:35:17 +0000 (Tue, 04 Nov 2008) | 1 line

SVN_SILENT made messages (.desktop file)
------------------------------------------------------------------------
r880534 | woebbe | 2008-11-05 19:38:00 +0000 (Wed, 05 Nov 2008) | 1 line

call KMimeType::mimeType() with ResolveAliases so that e.g. application/x-zip (used by KDE3) works
------------------------------------------------------------------------
r882243 | scripty | 2008-11-10 07:35:54 +0000 (Mon, 10 Nov 2008) | 1 line

SVN_SILENT made messages (.desktop file)
------------------------------------------------------------------------
r882353 | huftis | 2008-11-10 15:44:39 +0000 (Mon, 10 Nov 2008) | 1 line

Corrected, reorganized and expanded holiday file for Norway.
------------------------------------------------------------------------
r883016 | vkrause | 2008-11-11 21:47:50 +0000 (Tue, 11 Nov 2008) | 12 lines

Backport SVN commit 882949 by vkrause from trunk:

Merged revisions 882933 via svnmerge from 
https://vkrause@svn.kde.org/home/kde/branches/kdepim/enterprise4/kdepim

........
  r882933 | tilladam | 2008-11-11 18:46:12 +0100 (Tue, 11 Nov 2008) | 1 line
  
  Make sure to reload the UID map, otherwise it's stale on the next sync and
  might have offsets in it that will lead to mail loss, on the next mail
  sync. Kolab/issue3196.

------------------------------------------------------------------------
r883487 | djarvie | 2008-11-13 00:56:54 +0000 (Thu, 13 Nov 2008) | 1 line

Emit signal when work hours change
------------------------------------------------------------------------
r883867 | tmcguire | 2008-11-13 18:34:50 +0000 (Thu, 13 Nov 2008) | 12 lines

Backport r883829 by tmcguire from trunk to the 4.1 branch:

Merged revisions 877464 via svnmerge from 
svn+ssh://tmcguire@svn.kde.org/home/kde/branches/kdepim/enterprise4/kdepim

........
  r877464 | vkrause | 2008-10-29 16:54:34 +0100 (Wed, 29 Oct 2008) | 2 lines
  
  Make sure we initially create items for subresources.
........


------------------------------------------------------------------------
r883868 | tmcguire | 2008-11-13 18:37:27 +0000 (Thu, 13 Nov 2008) | 11 lines

Backport r879276 by tmcguire from trunk to the 4.1 branch:

When a message is already in the metadata map (either by UID or by MD5), don't
filter it, as it (hopefully) means we have already seen and therefore filtered
the message.
This fixes filters for online IMAP running multiple times for the same message,
and might even fix the problem of duplicate messages after filtering.

CCBUG: 95064


------------------------------------------------------------------------
r883869 | tmcguire | 2008-11-13 18:44:32 +0000 (Thu, 13 Nov 2008) | 4 lines

Backport r881656 by tmcguire from trunk to the 4.1 branch:

Don't show folder shortcuts and filter shortcuts in the shortcut dialog, since changing them there would not correctly update the config. Also, this reduces the clutter of that dialog a bit.

------------------------------------------------------------------------
r883871 | tmcguire | 2008-11-13 18:49:56 +0000 (Thu, 13 Nov 2008) | 4 lines

Backport r883778 by tmcguire from trunk to the 4.1 branch:

Fix added subfolders not appearing in the folder selection dialog.

------------------------------------------------------------------------
r883874 | tmcguire | 2008-11-13 18:51:49 +0000 (Thu, 13 Nov 2008) | 5 lines

Backport r883796 by tmcguire from trunk to the 4.1 branch:

Get rid of the margins, so that the margins in the receiving and sending tab are the same.


------------------------------------------------------------------------
r883876 | tmcguire | 2008-11-13 18:54:56 +0000 (Thu, 13 Nov 2008) | 5 lines

Backport r883798 by tmcguire from trunk to the 4.1 branch:

Enable sorting of receiving accounts, to make it more consistent with sending accounts.


------------------------------------------------------------------------
r883877 | tmcguire | 2008-11-13 18:58:39 +0000 (Thu, 13 Nov 2008) | 6 lines

Backport r880597 by winterz from trunk to the 4.1 branch:

Fix the layout showing the number of unread mails.
CCBUG: 174304


------------------------------------------------------------------------
r884326 | tmcguire | 2008-11-14 16:59:11 +0000 (Fri, 14 Nov 2008) | 9 lines

Backport r884142 by tmcguire from trunk to the 4.1 branch:

When piping a message to an external command, be sure to check
the return value of kByteArrayToFile().

This fixes mail loss when the tmp partition is full and spam filtering
is used.


------------------------------------------------------------------------
r886786 | djarvie | 2008-11-20 01:46:33 +0000 (Thu, 20 Nov 2008) | 2 lines

Bug 175623: fix execution of command alarm in konsole terminal

------------------------------------------------------------------------
r887779 | osterfeld | 2008-11-22 20:54:52 +0000 (Sat, 22 Nov 2008) | 2 lines

bump version

------------------------------------------------------------------------
r887852 | scripty | 2008-11-23 07:05:53 +0000 (Sun, 23 Nov 2008) | 1 line

SVN_SILENT made messages (.desktop file)
------------------------------------------------------------------------
r888694 | scripty | 2008-11-25 07:42:12 +0000 (Tue, 25 Nov 2008) | 1 line

SVN_SILENT made messages (.desktop file)
------------------------------------------------------------------------
r889488 | skelly | 2008-11-26 22:11:07 +0000 (Wed, 26 Nov 2008) | 6 lines

Backport some bugfixes to KDE4.1

CCBUG: 160600
CCBUG: 175100


------------------------------------------------------------------------
r890401 | scripty | 2008-11-29 08:22:16 +0000 (Sat, 29 Nov 2008) | 1 line

SVN_SILENT made messages (.desktop file)
------------------------------------------------------------------------
r890865 | tmcguire | 2008-11-30 15:05:38 +0000 (Sun, 30 Nov 2008) | 9 lines

Backport r884027 by winterz from trunk to the 4.1 branch:

if the email address exists in the addressbook, put the "open in addressbook"
option on the context menu; else put the "add to addressbook option".

CCBUG: 174332



------------------------------------------------------------------------
r890868 | tmcguire | 2008-11-30 15:08:44 +0000 (Sun, 30 Nov 2008) | 6 lines

Backport r884034 by winterz from trunk to the 4.1 branch:

fix crash when template quote indicator does not end with an underscore.
CCBUG: 174268


------------------------------------------------------------------------
r890871 | tmcguire | 2008-11-30 15:14:44 +0000 (Sun, 30 Nov 2008) | 9 lines

Backport r884374 by otrichet from trunk to the 4.1 branch:

Ensure the singleton Kpgp::Module::kpgpObject is correctly instanciated
 - Remove an unecessary call to Module() in kmail (used to initialize the singleton)
 - Adapt knode

CCBUG: 174707


------------------------------------------------------------------------
r890872 | tmcguire | 2008-11-30 15:16:14 +0000 (Sun, 30 Nov 2008) | 7 lines

Backport r884388 by winterz from trunk to the 4.1 branch:

replace the deprecated '--no-rebuild' option with '--no-sync'.
--no-rebuild was deprecated long ago when spamassassion 3.0 was released.
CCBUG: 140032


------------------------------------------------------------------------
r890876 | tmcguire | 2008-11-30 15:31:37 +0000 (Sun, 30 Nov 2008) | 9 lines

Backport r886055 by tmcguire from trunk to the 4.1 branch:

Fix possible crash when parsing the procmail file.
Patch by George Kiagiadakis <gkiagiad at csd dot uoc dot gr>,
thanks!

CCBUG: 173964


------------------------------------------------------------------------
r890879 | tmcguire | 2008-11-30 15:36:23 +0000 (Sun, 30 Nov 2008) | 12 lines

Backport r886205 by tmcguire from trunk to the 4.1 branch:

When inserting a file to the composer:

- Don't add a zero-terminator to the end
- Check if the content can still be encoded with the current charset.
  If not, change the mode to auto-charset detection.

CCBUG: 88781



------------------------------------------------------------------------
r890881 | tmcguire | 2008-11-30 15:42:13 +0000 (Sun, 30 Nov 2008) | 9 lines

Backport r886302 by tmcguire from trunk to the 4.1 branch:

Finally make the questionbox that asks you whether to lose chars or to change encoding
work correctly.

CCBUG: 149309 
CCBUG: 145163.


------------------------------------------------------------------------
r890882 | tmcguire | 2008-11-30 15:46:10 +0000 (Sun, 30 Nov 2008) | 10 lines

Backport r886610 by tmcguire from trunk to the 4.1 branch:

Fixes for "insert file":

- Revert the auto-changing of the charset I commited yesterday, it is not needed
  now that the messagebox asking about unsupported encodings works again
- Make the combobox actually appear in the file widget
- Read the encoding back after the dialog has finished, not before


------------------------------------------------------------------------
r890884 | tmcguire | 2008-11-30 15:48:42 +0000 (Sun, 30 Nov 2008) | 5 lines

Backport r887691 by mueller from trunk to the 4.1 branch:

make sure that startPart is in range


------------------------------------------------------------------------
r890890 | tmcguire | 2008-11-30 16:03:04 +0000 (Sun, 30 Nov 2008) | 14 lines

Backport r888149 by tmcguire from trunk to the 4.1 branch:

An attempt to repair the encoding mess a bit, when attaching files:

- Don't set the charset to us-ascii if it couldn't be found
- Give up on KEncodingProber, it doesn't work reliable enough.
  Instead, add an encoding combobox to the file dialog.
  Now it is the user's fault if the encoding is not correct :)
- Don't attempt to set a charset for a non-textual mimetype
- Don't show an empty string for the mimetype

CCBUG: 64815


------------------------------------------------------------------------
r890891 | tmcguire | 2008-11-30 16:03:36 +0000 (Sun, 30 Nov 2008) | 5 lines

Backport r888157 by mleupold from trunk to the 4.1 branch:

Remove an assertion that might actually crash KMail (eg. by issuing a DBus setFolder call). Passing 0 to setCurrentFolder is perfectly valid.


------------------------------------------------------------------------
r890894 | otrichet | 2008-11-30 16:04:51 +0000 (Sun, 30 Nov 2008) | 16 lines

Merged revisions 883879,883902 via svnmerge from 
svn+ssh://otrichet@svn.kde.org/home/kde/trunk/KDE/kdepim

........
  r883879 | otrichet | 2008-11-13 20:02:38 +0100 (jeu, 13 nov 2008) | 2 lines
  
  Fix a crash when user click ok on the rules editor
........
  r883902 | otrichet | 2008-11-13 20:46:21 +0100 (jeu, 13 nov 2008) | 5 lines
  
  Fix edition of scoring rules (saving and loading the UI)
  
  CCBUG: 170030
  CCBUG: 175045
........

------------------------------------------------------------------------
r890895 | tmcguire | 2008-11-30 16:04:59 +0000 (Sun, 30 Nov 2008) | 19 lines

Backport r890608 by tmcguire from trunk to the 4.1 branch:

Merged revisions 889796 via svnmerge from 
svn+ssh://tmcguire@svn.kde.org/home/kde/branches/kdepim/enterprise4/kdepim

................
  r889796 | vkrause | 2008-11-27 18:17:52 +0100 (Thu, 27 Nov 2008) | 9 lines
  
  Merged revisions 887744 via svnmerge from 
  https://vkrause@svn.kde.org/home/kde/branches/kdepim/enterprise/kdepim
  
  ........
    r887744 | mutz | 2008-11-22 19:17:16 +0100 (Sat, 22 Nov 2008) | 1 line
    
    Fix the alternateUrl() case... Someone erned a pointy hat here.
  ........
................


------------------------------------------------------------------------
r890930 | tmcguire | 2008-11-30 17:20:06 +0000 (Sun, 30 Nov 2008) | 1 line

Bump version.
------------------------------------------------------------------------
r891008 | osterfeld | 2008-11-30 21:56:42 +0000 (Sun, 30 Nov 2008) | 4 lines

save settings from MainWidget::saveSettings, hopefully this fixes the issues with articlelistview settings not 
saved/restored reliably.
CCBUG:176262

------------------------------------------------------------------------
r891012 | osterfeld | 2008-11-30 22:48:41 +0000 (Sun, 30 Nov 2008) | 4 lines

improve prev/next unread article behavior when a filter is set
Not exactly 138935 (which is fixed since 4.1) but similar
BUG:138935

------------------------------------------------------------------------
r891480 | scripty | 2008-12-02 08:13:00 +0000 (Tue, 02 Dec 2008) | 1 line

SVN_SILENT made messages (.desktop file)
------------------------------------------------------------------------
r892131 | lukas | 2008-12-03 15:51:56 +0000 (Wed, 03 Dec 2008) | 2 lines

missing i18n(), please forward port

------------------------------------------------------------------------
r892193 | djarvie | 2008-12-03 19:26:40 +0000 (Wed, 03 Dec 2008) | 1 line

Fix toolbar settings being lost
------------------------------------------------------------------------
r892346 | scripty | 2008-12-04 07:25:58 +0000 (Thu, 04 Dec 2008) | 1 line

SVN_SILENT made messages (.desktop file)
------------------------------------------------------------------------
r892411 | wstephens | 2008-12-04 11:40:58 +0000 (Thu, 04 Dec 2008) | 1 line

Backport r892410: fixes to warn on trying to set up dud local<->remote id mappings
------------------------------------------------------------------------
r892742 | scripty | 2008-12-05 07:38:52 +0000 (Fri, 05 Dec 2008) | 1 line

SVN_SILENT made messages (.desktop file)
------------------------------------------------------------------------
r893414 | winterz | 2008-12-06 15:34:55 +0000 (Sat, 06 Dec 2008) | 7 lines

backport SVN commit 850671 by winterz:

use QToolButtons instead of QPushButtons for the scroll forward/back month/year
widgets.  I just think this looks nicer as nothing else on the interface is
raised.  setting QPushButton flat doesn't help either because apparently
the style can override that.

------------------------------------------------------------------------
r893418 | winterz | 2008-12-06 15:38:51 +0000 (Sat, 06 Dec 2008) | 5 lines

backport SVN commit 850679 by winterz:

port Q3PopupMenu to QMenu
and some other minor cleanups,like unused include and forward decls.

------------------------------------------------------------------------
r893422 | winterz | 2008-12-06 15:40:46 +0000 (Sat, 06 Dec 2008) | 4 lines

backport SVN commit 850722 by mlaurent:

Fix compile with -pedantic

------------------------------------------------------------------------
r893427 | winterz | 2008-12-06 15:43:06 +0000 (Sat, 06 Dec 2008) | 4 lines

backport SVN commit 850885 by winterz:

fix selectMonth() to emit the correct month index (which is 1-based, not 0-based)

------------------------------------------------------------------------
r893430 | winterz | 2008-12-06 15:46:59 +0000 (Sat, 06 Dec 2008) | 4 lines

backport SVN commit 854535 by winterz:

a little cleanup of the layout

------------------------------------------------------------------------
r893434 | winterz | 2008-12-06 15:53:25 +0000 (Sat, 06 Dec 2008) | 5 lines

backport SVN commit 858338 by krake:

First subresource item makes sure that there is an indication about subresources being present


------------------------------------------------------------------------
r893437 | winterz | 2008-12-06 15:56:15 +0000 (Sat, 06 Dec 2008) | 5 lines

backport SVN commit 865535 by winterz:

Shai's patch to help with RTL vs. LTR elided text in the monthview items.
Should permit mix&match of both directions in 1 month view.

------------------------------------------------------------------------
r893453 | winterz | 2008-12-06 16:39:21 +0000 (Sat, 06 Dec 2008) | 6 lines

backport SVN commit 876072 by winterz:

stuff I had lying around... looks like I was investigating the evil
setNoActionCursor() crash.  The changes look good, although I'm not
sure if they fix anything.  otoh, I haven't had that crash in a long time.

------------------------------------------------------------------------
r893455 | winterz | 2008-12-06 16:41:54 +0000 (Sat, 06 Dec 2008) | 6 lines

backport SVN commit 881603 by winterz:

Prepend/Append horizontal spacers to the control bar so when the
Prev/Next QToolButtons are hidden the Month and Year ActiveLabels
remain nicely centered.

------------------------------------------------------------------------
r893461 | winterz | 2008-12-06 16:47:10 +0000 (Sat, 06 Dec 2008) | 5 lines

backport SVN commit 881616 by winterz:

create 2 separate horizontal spacers in the control layout.
else we crash when destroying the QHBoxLayout.

------------------------------------------------------------------------
r893464 | winterz | 2008-12-06 16:53:13 +0000 (Sat, 06 Dec 2008) | 4 lines

backport SVN commit 881745 by winterz:

fix alignment of day labels and allday grid to the main agenda matrix.

------------------------------------------------------------------------
r893466 | winterz | 2008-12-06 16:55:11 +0000 (Sat, 06 Dec 2008) | 5 lines

backport SVN commit 883935 by winterz:

fix for obeying the "do not show to-dos in monthview" configuration.
based on Thomas' patch.

------------------------------------------------------------------------
r893468 | winterz | 2008-12-06 16:57:21 +0000 (Sat, 06 Dec 2008) | 9 lines

backport SVN commit 886882 by winterz:

when changing the Attendee list, let's not overload the Incidence
Observer about it. 

This fixes a crash when removing Attendees.
Well, at least it does in my testing.  More testing appreciated.
I'll close until someone reports that they can still make it crash.

------------------------------------------------------------------------
r893469 | winterz | 2008-12-06 16:59:26 +0000 (Sat, 06 Dec 2008) | 6 lines

backport SVN commit 887426 by winterz:

if user selects [cancel] from the "should email be sent out to the attendees"
dialog, then this is the same as cancelling the incidence editor.


------------------------------------------------------------------------
r893475 | winterz | 2008-12-06 17:22:16 +0000 (Sat, 06 Dec 2008) | 5 lines

backport SVN commit 888572 by winterz:

Ron's patch for fixing journal print crashing.  with some minor changes by me.
actually, fixes print crashing in general.

------------------------------------------------------------------------
r893477 | winterz | 2008-12-06 17:23:57 +0000 (Sat, 06 Dec 2008) | 12 lines

backport SVN commit 890719 by winterz:

Use valid QDateTimes in readEntry and writeEntry, even in the cases
where we really only need to read/write a QDate or QTime.
Unfortunately, QDates and QTimes are not supported by KConfig.
and then there's the issue of legacy korganizer_printingrc files.
 
we should have used QStrings.

anyhow, this should stop the console messages:
  "conversion of "-4713,1,1,18,15,53" to QDateTime failed"

------------------------------------------------------------------------
r893479 | winterz | 2008-12-06 17:27:49 +0000 (Sat, 06 Dec 2008) | 6 lines

backport SVN commit 890848 by winterz:

set the default year to the current year, not 2007.
replace a magic number "900" with an enum.
coding cleanups.

------------------------------------------------------------------------
r893481 | winterz | 2008-12-06 17:34:56 +0000 (Sat, 06 Dec 2008) | 6 lines

backport SVN commit 890862 by winterz:

pass a real Calendar to the print subsystem.  this fixes lots of bugs
that occur if you try to print something other than an Incidence
from the Journal view.

------------------------------------------------------------------------
r893484 | winterz | 2008-12-06 17:36:55 +0000 (Sat, 06 Dec 2008) | 4 lines

backport SVN commit 892330 by rgoodheart:

this starts the print date on the date from the calendar rather than the event start date. Todo's without a start date would not have a date in the print dialog.

------------------------------------------------------------------------
r893486 | winterz | 2008-12-06 17:39:08 +0000 (Sat, 06 Dec 2008) | 5 lines

backport SVN commit 893066 by winterz:

use timespec when printing date strings.  now we get the correct datetimes
when printing incidences with the UTC timezone.

------------------------------------------------------------------------
r893487 | winterz | 2008-12-06 17:42:01 +0000 (Sat, 06 Dec 2008) | 5 lines

backport SVN commit 893109 by winterz:

patch from Sérgio to make double-click start the incidence editor.
partial fix for "korganizer's month view doesnt react to key and mouse events"

------------------------------------------------------------------------
r893494 | winterz | 2008-12-06 17:48:11 +0000 (Sat, 06 Dec 2008) | 6 lines

backport SVN commit 893120 by winterz:

Fixes a couple of bugs:
1) delete key deletes an incidence
2) Edit->paste pastes where you tell it, rather than on first day showing

------------------------------------------------------------------------
r893495 | winterz | 2008-12-06 17:49:29 +0000 (Sat, 06 Dec 2008) | 5 lines

backport SVN commit 893331 by winterz:

fix regression I introduced yesterday which broke pasting in agenda view.
with some minor updating of the comments and code re-arranging.

------------------------------------------------------------------------
r893496 | winterz | 2008-12-06 17:51:15 +0000 (Sat, 06 Dec 2008) | 4 lines

backport SVN commit 884266 by winterz:

patch from Thomas to fix sorting.

------------------------------------------------------------------------
r893501 | winterz | 2008-12-06 18:06:33 +0000 (Sat, 06 Dec 2008) | 2 lines

update and fix.

------------------------------------------------------------------------
r893508 | winterz | 2008-12-06 18:25:10 +0000 (Sat, 06 Dec 2008) | 2 lines

backports to help make Paste work

------------------------------------------------------------------------
r893605 | winterz | 2008-12-06 23:43:43 +0000 (Sat, 06 Dec 2008) | 5 lines

backport SVN commit 893559 by winterz:

ld50's patch so type-ahead event creation ignores ctrl keys


------------------------------------------------------------------------
r893626 | djarvie | 2008-12-07 01:03:58 +0000 (Sun, 07 Dec 2008) | 5 lines

Fix KOrganizer component not being loaded when Kontact is running, when
creating/updating alarms with 'Copy to KOrganizer' option selected.

Fixes bug 176759.

------------------------------------------------------------------------
r893666 | scripty | 2008-12-07 07:52:25 +0000 (Sun, 07 Dec 2008) | 1 line

SVN_SILENT made messages (.desktop file)
------------------------------------------------------------------------
r893741 | krake | 2008-12-07 12:16:51 +0000 (Sun, 07 Dec 2008) | 6 lines

Just to be sure delay the synchronous address book loading until the instance has been created so any futher call to KOPrefs::instance() already sees mInstance as valid pointer.

See http://websvn.kde.org/?view=rev&revision=889879 for a singleton creator where this caused problems

Backport of Revision 889885

------------------------------------------------------------------------
r893922 | winterz | 2008-12-07 15:11:13 +0000 (Sun, 07 Dec 2008) | 4 lines

backport SVN commit 881528 by vkrause:

Additional safety check, suggested by André Wöbbeking.

------------------------------------------------------------------------
r893924 | winterz | 2008-12-07 15:13:37 +0000 (Sun, 07 Dec 2008) | 4 lines

backport SVN commit 882632 by winterz:

fix help anchors for kaddressbook running stand-alone or inside kontact.

------------------------------------------------------------------------
r893930 | winterz | 2008-12-07 15:20:50 +0000 (Sun, 07 Dec 2008) | 5 lines

backport SVN commit 884017 by winterz:

tell the configuration dialog Help button how to find the docs
for Kontact Configuration.

------------------------------------------------------------------------
r893933 | winterz | 2008-12-07 15:22:49 +0000 (Sun, 07 Dec 2008) | 7 lines

backport SVN commit 884354 by tmcguire:

Fix the "open in addressbook" action in KMail.

D-Bus is case-sensitive.


------------------------------------------------------------------------
r894085 | winterz | 2008-12-07 21:41:53 +0000 (Sun, 07 Dec 2008) | 4 lines

backport SVN commit 894083 by winterz

Paweł's fix for making filtering work. Thanks!

------------------------------------------------------------------------
r894576 | winterz | 2008-12-08 21:50:03 +0000 (Mon, 08 Dec 2008) | 5 lines

backport SVN commit 889794 by winterz:

don't test for attachments if the attachWordsList is empty.
even if we are configured to check for forgotten attachments.

------------------------------------------------------------------------
r894693 | scripty | 2008-12-09 07:16:43 +0000 (Tue, 09 Dec 2008) | 1 line

SVN_SILENT made messages (.desktop file)
------------------------------------------------------------------------
r894883 | winterz | 2008-12-09 14:20:57 +0000 (Tue, 09 Dec 2008) | 2 lines

Add Chile's holidays, from Nicolas.

------------------------------------------------------------------------
r895000 | otrichet | 2008-12-09 19:39:31 +0000 (Tue, 09 Dec 2008) | 5 lines

Use a workaround from kmail to address bug 169411: knode sends post with charset "iso xxxx-x" instead of proper "iso-xxxx-x".
For the kde 4.1 branche only

CCBUG: 169411

------------------------------------------------------------------------
r895059 | tmcguire | 2008-12-09 22:06:41 +0000 (Tue, 09 Dec 2008) | 6 lines

Backport r895011 by ogoffart from trunk to the 4.1 branch:

Fixes a crash



------------------------------------------------------------------------
r895109 | winterz | 2008-12-10 00:38:16 +0000 (Wed, 10 Dec 2008) | 2 lines

add Jamaica's holidays, from Roger.

------------------------------------------------------------------------
r895180 | scripty | 2008-12-10 08:20:47 +0000 (Wed, 10 Dec 2008) | 1 line

SVN_SILENT made messages (.desktop file)
------------------------------------------------------------------------
r895194 | wstephens | 2008-12-10 09:10:54 +0000 (Wed, 10 Dec 2008) | 4 lines

Backport r894938: Fix persistent progress dialogs for GPG key
operations.
CCBUG:169563

------------------------------------------------------------------------
r895519 | winterz | 2008-12-10 22:02:46 +0000 (Wed, 10 Dec 2008) | 3 lines

backport winterz r895476
ld50's patch to fix a crash when deleting categories with deep subcategories.

------------------------------------------------------------------------
r895816 | woebbe | 2008-12-11 20:16:31 +0000 (Thu, 11 Dec 2008) | 1 line

keyPressEvent(): fix more than two years old porting error
------------------------------------------------------------------------
r896103 | winterz | 2008-12-12 14:12:15 +0000 (Fri, 12 Dec 2008) | 4 lines

backport SVN commit 896098 by winterz:

fix day of energy date, thanks for patch Christophe

------------------------------------------------------------------------
r896251 | otrichet | 2008-12-12 22:59:18 +0000 (Fri, 12 Dec 2008) | 11 lines

Merged revisions 895836 via svnmerge from 
svn+ssh://otrichet@svn.kde.org/home/kde/trunk/KDE/kdepim

........
  r895836 | otrichet | 2008-12-11 21:49:46 +0100 (jeu, 11 déc 2008) | 4 lines
  
  Wrap correcty the text of articles being sent
  
  BUG: 167996
........

------------------------------------------------------------------------
r896274 | djarvie | 2008-12-13 01:41:27 +0000 (Sat, 13 Dec 2008) | 2 lines

Load translations

------------------------------------------------------------------------
r896277 | djarvie | 2008-12-13 01:50:20 +0000 (Sat, 13 Dec 2008) | 2 lines

Returning false is always a fatal error

------------------------------------------------------------------------
r896545 | mikearthur | 2008-12-13 19:25:18 +0000 (Sat, 13 Dec 2008) | 2 lines

Backport r896543 from trunk (remove non-working LiveJournal support)

------------------------------------------------------------------------
r896827 | djarvie | 2008-12-14 14:43:03 +0000 (Sun, 14 Dec 2008) | 2 lines

Fix crash if KAlarm is activated again while restoring from previous session.

------------------------------------------------------------------------
r896842 | djarvie | 2008-12-14 14:53:23 +0000 (Sun, 14 Dec 2008) | 1 line

Update change log
------------------------------------------------------------------------
r896949 | tnyblom | 2008-12-14 20:15:13 +0000 (Sun, 14 Dec 2008) | 3 lines

Fix spacing in Configure dialog (Misc tab)
(backport of r896948)

------------------------------------------------------------------------
r897014 | djarvie | 2008-12-15 01:00:06 +0000 (Mon, 15 Dec 2008) | 2 lines

Fix kalarmautostart crash on logout while kalarmautostart is still running.

------------------------------------------------------------------------
r897380 | djarvie | 2008-12-15 22:01:19 +0000 (Mon, 15 Dec 2008) | 3 lines

Fix click on system tray icon not showing main window if 'Show in system tray'
configuration setting deselected.

------------------------------------------------------------------------
r897759 | djarvie | 2008-12-16 19:33:41 +0000 (Tue, 16 Dec 2008) | 2 lines

Bug 177798: Distinguish disabled from enabled alarm colour when highlighted in alarm list.

------------------------------------------------------------------------
r898242 | smartins | 2008-12-17 20:24:27 +0000 (Wed, 17 Dec 2008) | 8 lines

Fixed Find (#153916):

1. Increment the iterator, not the pointer (segfault)
2. Don't delete a QObject inside a slot it that QObject emitted the signal. (Segfault)
3. Fix 2 KFind dialogs appearing.
4. Fix highlightening


------------------------------------------------------------------------
r898244 | smartins | 2008-12-17 20:28:55 +0000 (Wed, 17 Dec 2008) | 2 lines

Don't let knotes exit when the last window is closed. It should stay in the systray. (#153244)

------------------------------------------------------------------------
r899547 | scripty | 2008-12-21 07:53:52 +0000 (Sun, 21 Dec 2008) | 1 line

SVN_SILENT made messages (.desktop file)
------------------------------------------------------------------------
r899838 | krake | 2008-12-21 17:36:36 +0000 (Sun, 21 Dec 2008) | 5 lines

Backport of 899837:

Emit resourceLoaded() at end of doLoad().


------------------------------------------------------------------------
r899959 | tmcguire | 2008-12-21 22:37:57 +0000 (Sun, 21 Dec 2008) | 21 lines

Backport r899939 by tmcguire from trunk to the 4.1 branch:

Merged revisions 898186 via svnmerge from 
svn+ssh://tmcguire@svn.kde.org/home/kde/branches/kdepim/enterprise4/kdepim

................
  r898186 | vkrause | 2008-12-17 17:36:45 +0100 (Wed, 17 Dec 2008) | 11 lines
  
  Merged revisions 898182 via svnmerge from 
  https://vkrause@svn.kde.org/home/kde/branches/kdepim/enterprise/kdepim
  
  ........
    r898182 | vkrause | 2008-12-17 17:26:09 +0100 (Wed, 17 Dec 2008) | 4 lines
    
    Write subresource state changes immediately.
    
    Kolab issue 3314
  ........
................


------------------------------------------------------------------------
r899961 | tmcguire | 2008-12-21 22:39:58 +0000 (Sun, 21 Dec 2008) | 21 lines

Backport r899940 by tmcguire from trunk to the 4.1 branch:

Merged revisions 898658 via svnmerge from 
svn+ssh://tmcguire@svn.kde.org/home/kde/branches/kdepim/enterprise4/kdepim

................
  r898658 | vkrause | 2008-12-18 17:31:45 +0100 (Thu, 18 Dec 2008) | 11 lines
  
  Merged revisions 898641 via svnmerge from 
  https://vkrause@svn.kde.org/home/kde/branches/kdepim/enterprise/kdepim
  
  ........
    r898641 | vkrause | 2008-12-18 16:17:12 +0100 (Thu, 18 Dec 2008) | 4 lines
    
    Allow to change my status even if I'm the organizer of this event.
    
    Kolab issue 3084
  ........
................


------------------------------------------------------------------------
r899969 | tmcguire | 2008-12-21 22:46:02 +0000 (Sun, 21 Dec 2008) | 6 lines

Backport r898607 by winterz from trunk to the 4.1 branch:

fix crashing in templates when using the %- (dnl) in certain conditions.
CCBUG: 178038


------------------------------------------------------------------------
r899971 | winterz | 2008-12-21 22:47:27 +0000 (Sun, 21 Dec 2008) | 3 lines

explicitly add ${KDE4_KDE3SUPPORT_LIBS} and ${KDE4_KLDAP_LIBRARY} as needed
so the 4.1 branch can build against the minimum linkage of trunk.

------------------------------------------------------------------------
r899972 | tmcguire | 2008-12-21 22:53:09 +0000 (Sun, 21 Dec 2008) | 16 lines

Backport r899776 by tmcguire from trunk to the 4.1 branch:

Fix inline-forwarding of messages with attachments.

The template parser copied the original message and then set the whole body to the template text.
This did not work for multipart messages, since setting the body there has no effect (and would
discard the attachment if it had any effect).
Therefore, we simply place the template text in the first text part we find in case of multipart
messages. This probably still breaks with HTML messages with attachments or with other complicated
nested structures. Oh well.

CCBUG: 178128
CCBUG: 146921
kolab/issue 3219


------------------------------------------------------------------------
r899974 | tmcguire | 2008-12-21 22:55:50 +0000 (Sun, 21 Dec 2008) | 21 lines

Backport r899916 by tmcguire from trunk to the 4.1 branch:

Merged revisions 898168 via svnmerge from 
svn+ssh://tmcguire@svn.kde.org/home/kde/branches/kdepim/enterprise4/kdepim

................
  r898168 | vkrause | 2008-12-17 16:34:34 +0100 (Wed, 17 Dec 2008) | 11 lines
  
  Merged revisions 898161 via svnmerge from 
  https://vkrause@svn.kde.org/home/kde/branches/kdepim/enterprise/kdepim
  
  ........
    r898161 | vkrause | 2008-12-17 16:21:31 +0100 (Wed, 17 Dec 2008) | 4 lines
    
    Don't allow attachment deletion/editing in read-only folders.
    
    Kolab issue 3324
  ........
................


------------------------------------------------------------------------
r899975 | tmcguire | 2008-12-21 22:57:17 +0000 (Sun, 21 Dec 2008) | 15 lines

Backport r899941 by tmcguire from trunk to the 4.1 branch:

Merged revisions 898963 via svnmerge from 
svn+ssh://tmcguire@svn.kde.org/home/kde/branches/kdepim/enterprise4/kdepim

........
  r898963 | vkrause | 2008-12-19 13:47:37 +0100 (Fri, 19 Dec 2008) | 5 lines
  
  Fix crash when clicking on one of the invitation action links and the
  text/calendar plugin rejects to handle it (eg. due to missing active
  resources). No idea how that then ends up in the text/vcard plugin
  though...
........


------------------------------------------------------------------------
r899977 | winterz | 2008-12-21 23:00:07 +0000 (Sun, 21 Dec 2008) | 10 lines

backport SVN commit 897185 by winterz:

paint the header on the all-day event or to-do items that are
drawn into the All Day grid.

Note: We don't draw a header if there are too many All Day items
on the same day due to space limitations.  Same for the hour grid --
we don't draw the header if there isn't enough space.


------------------------------------------------------------------------
r899978 | winterz | 2008-12-21 23:01:53 +0000 (Sun, 21 Dec 2008) | 6 lines

backport SVN commit 898622 by winterz:

give the settings a nice config value early on, just in case we do stuff
before the configUpdate() is called.


------------------------------------------------------------------------
r900000 | winterz | 2008-12-21 23:29:10 +0000 (Sun, 21 Dec 2008) | 5 lines

backport SVN commit 896861 by winterz:

disable the configuration area for plugins, unless those plugins
are selected first.

------------------------------------------------------------------------
r900003 | winterz | 2008-12-21 23:31:15 +0000 (Sun, 21 Dec 2008) | 5 lines

backport SVN commit 896862 by winterz:

hide the [Configure Plugin] button if the plugin doesn't have 
anything to configure.

------------------------------------------------------------------------
r900008 | winterz | 2008-12-21 23:33:32 +0000 (Sun, 21 Dec 2008) | 7 lines

backport SVN commit 896899 by winterz:

use QRadioButtons instead of QCheckBoxes for the options
"show on top of agendaview" and "show on bottom of agendaview".
i.e. do not allow the same decoration on both the top AND bottom
of the agendaview.

------------------------------------------------------------------------
r900013 | winterz | 2008-12-21 23:34:19 +0000 (Sun, 21 Dec 2008) | 5 lines

backport SVN commit 897238 by winterz:

make sure at least 1 decoration is selected, that default being
the top of agenda view.

------------------------------------------------------------------------
r900304 | tstaerk | 2008-12-22 14:38:45 +0000 (Mon, 22 Dec 2008) | 3 lines

Tell the correct version so I can finally fix this bug...
BUGS:173543

------------------------------------------------------------------------
r900343 | tstaerk | 2008-12-22 16:17:03 +0000 (Mon, 22 Dec 2008) | 3 lines

Backporting 830758: Do not crash when deleting the last task.
BUGS:173543

------------------------------------------------------------------------
r900344 | tmcguire | 2008-12-22 16:20:28 +0000 (Mon, 22 Dec 2008) | 10 lines

Partial backport of 846650 by tmcguire:

- get rid of setBody(), it was not necessary anymore and caused the cursor 
  to be at the wrong place

=> the effect was that this broke inline forwarding of multipart/mixed messages,
   since it set the composer's text to the complete body of the message, which included
   MIME headers and the attachment. Now, we rely on the objectreeparser in the composer
   to correctly get the text from the message.

------------------------------------------------------------------------
r900503 | smartins | 2008-12-23 02:20:28 +0000 (Tue, 23 Dec 2008) | 3 lines

Only call KTemporaryFile::setSuffix() if the associated mimeType has patterns, otherwise an assert in QT will be hit.


------------------------------------------------------------------------
r900823 | krake | 2008-12-23 18:07:21 +0000 (Tue, 23 Dec 2008) | 5 lines

Backport of r900822 

Set type of alarm (initial value is Alarm::Invalid) otherwise setText() is ignored


------------------------------------------------------------------------
r900867 | djarvie | 2008-12-23 20:37:50 +0000 (Tue, 23 Dec 2008) | 1 line

Ensure system tray icon always has a parent
------------------------------------------------------------------------
r900876 | tstaerk | 2008-12-23 21:03:24 +0000 (Tue, 23 Dec 2008) | 5 lines

Backport of 900568: Show the idle time message on the virtual desktop
that is currently active. This makes it harder to subtract time from a
wrong task.
BUGS:153442,174346

------------------------------------------------------------------------
r902298 | djarvie | 2008-12-28 00:32:00 +0000 (Sun, 28 Dec 2008) | 2 lines

Ensure alarm windows show on top of full-screen windows.

------------------------------------------------------------------------
r902505 | djarvie | 2008-12-28 14:44:03 +0000 (Sun, 28 Dec 2008) | 2 lines

Make new command alarm icon analogous to other new alarm icons

------------------------------------------------------------------------
r903430 | smartins | 2008-12-30 14:47:57 +0000 (Tue, 30 Dec 2008) | 2 lines

Fix to-do copying.

------------------------------------------------------------------------
r903452 | smartins | 2008-12-30 15:11:24 +0000 (Tue, 30 Dec 2008) | 2 lines

Thomas Thrainer's patch to speed up size calculation of rich text delegate.

------------------------------------------------------------------------
r903745 | smartins | 2008-12-31 13:08:21 +0000 (Wed, 31 Dec 2008) | 2 lines

Make links work in the "Whats next" view.

------------------------------------------------------------------------
r904615 | smartins | 2009-01-02 16:30:11 +0000 (Fri, 02 Jan 2009) | 2 lines

Fix event duplication when moving events with the mouse.

------------------------------------------------------------------------
r904675 | osterfeld | 2009-01-02 19:23:18 +0000 (Fri, 02 Jan 2009) | 5 lines

Fix copy text in article viewer
Patch by Michael Leupold <lemma@confuego.org.
CCMAIL:lemma@confuego.org
BUG: 168865

------------------------------------------------------------------------
r904945 | tmcguire | 2009-01-03 15:12:16 +0000 (Sat, 03 Jan 2009) | 14 lines

Backport r904918 by tmcguire from trunk to the 4.1 branch:

Merged revisions 900706 via svnmerge from 
svn+ssh://tmcguire@svn.kde.org/home/kde/branches/kdepim/enterprise4/kdepim

........
  r900706 | vkrause | 2008-12-23 13:59:08 +0100 (Tue, 23 Dec 2008) | 4 lines
  
  Fix LDIF import for files with windows linebreaks (CRLF). This probably
  should be fixed in the LDIF parser in the first place (CRLF is a valid
  linebreak according to RFC 2849), but it's much easier this way.
........


------------------------------------------------------------------------
r904948 | tmcguire | 2009-01-03 15:14:10 +0000 (Sat, 03 Jan 2009) | 9 lines

Backport r900449 by tmcguire from trunk to the 4.1 branch:

Fix a crash when syncing flags from a server while we have a search folder
that has a search rule which needs the complete body, because this unget()s
the message behind our back right after changing the flags.

CCBUG: 106030


------------------------------------------------------------------------
r904951 | tmcguire | 2009-01-03 15:15:59 +0000 (Sat, 03 Jan 2009) | 6 lines

Backport r901167 by tmcguire from trunk to the 4.1 branch:

Also detect messages with X-Priority == 2 as urgent.
Patch by Stefan Geuns <bitrain at gmail dot com>, thanks!


------------------------------------------------------------------------
r904955 | tmcguire | 2009-01-03 15:18:46 +0000 (Sat, 03 Jan 2009) | 17 lines

Backport r904913 by tmcguire from trunk to the 4.1 branch:

CCBUG: 140041
--
Merged revisions 900455 via svnmerge from 
svn+ssh://tmcguire@svn.kde.org/home/kde/branches/kdepim/enterprise4/kdepim

........
  r900455 | vkrause | 2008-12-22 22:56:18 +0100 (Mon, 22 Dec 2008) | 5 lines
  
  Remove the default resource generation code here and let
  KOrg::StdCalendar handle that instead. This gives us the same result now
  no matter if Kontact with summary plugin or KOrganizer was started
  first. Also, we no longer get duplicate resources in the first case.
........


------------------------------------------------------------------------
r905446 | winterz | 2009-01-04 12:52:37 +0000 (Sun, 04 Jan 2009) | 2 lines

link against 4.2

------------------------------------------------------------------------
r905548 | winterz | 2009-01-04 15:40:01 +0000 (Sun, 04 Jan 2009) | 2 lines

link against 4.2

------------------------------------------------------------------------
r905551 | winterz | 2009-01-04 15:46:41 +0000 (Sun, 04 Jan 2009) | 2 lines

link

------------------------------------------------------------------------
r905592 | winterz | 2009-01-04 17:40:18 +0000 (Sun, 04 Jan 2009) | 2 lines

link against 4.2

------------------------------------------------------------------------
r905598 | winterz | 2009-01-04 17:53:07 +0000 (Sun, 04 Jan 2009) | 4 lines

backport SVN commit 904965 by winterz:

Fix the tabbing around order.  Thanks for the patch Christophe.

------------------------------------------------------------------------
r905602 | winterz | 2009-01-04 17:56:53 +0000 (Sun, 04 Jan 2009) | 7 lines

backport SVN commit 899875 by smartins:

Don't call Calendar::events(KDateTime dt) for each day.
Instead, call Calendar::events(KDateTime start, KDateTime end) just once.

This takes care of performance problems in KODayMatrix::updateEvents().

------------------------------------------------------------------------
r905605 | winterz | 2009-01-04 17:59:08 +0000 (Sun, 04 Jan 2009) | 2 lines

update the version number, thanks for the reminder ld50.

------------------------------------------------------------------------
r905610 | winterz | 2009-01-04 18:06:04 +0000 (Sun, 04 Jan 2009) | 8 lines

backport SVN commit 901467 by winterz:

Provide a new activeDate() method in which we more accurately compute
the date currently active, dependent on the view.

Use activeDate() when starting an Incidence editor for a new Event/To-do/Journal.


------------------------------------------------------------------------
r905612 | winterz | 2009-01-04 18:08:27 +0000 (Sun, 04 Jan 2009) | 4 lines

backport SVN commit 903468 by smartins:

Don't call mTodoList->updateView() when switching between agenda/monthview.

------------------------------------------------------------------------
r905616 | winterz | 2009-01-04 18:11:14 +0000 (Sun, 04 Jan 2009) | 4 lines

backport SVN commit 903617 by smartins:

Now, when switching views, if there's a day selected in the previous view, that day will be visible in the new view.

------------------------------------------------------------------------
r905619 | winterz | 2009-01-04 18:14:02 +0000 (Sun, 04 Jan 2009) | 6 lines

backport SVN commit 900026 by smartins:

Use Recurrence::timesInInterval() instead of Incidence->recursOn() for each day.

Fixes performance problems with month switching.

------------------------------------------------------------------------
r905623 | winterz | 2009-01-04 18:20:57 +0000 (Sun, 04 Jan 2009) | 4 lines

backport SVN commit 901280 by winterz:

stop loading the decoration-type plugins so darn many times.

------------------------------------------------------------------------
r905628 | winterz | 2009-01-04 18:28:11 +0000 (Sun, 04 Jan 2009) | 7 lines

backport SVN commit 901518 by winterz:

another attempt at fixing the dreaded crash in paintEvent().

this time we try an eventFilter() in conjuction with a validity flag.


------------------------------------------------------------------------
r905634 | winterz | 2009-01-04 18:42:10 +0000 (Sun, 04 Jan 2009) | 2 lines

backport the final fixes for Paste that were lost.

------------------------------------------------------------------------
r905646 | smartins | 2009-01-04 19:10:52 +0000 (Sun, 04 Jan 2009) | 2 lines

When using timesInInterval( start, end ) set end to 23:59, so the last day isn't ignored.

------------------------------------------------------------------------
r905717 | repinc | 2009-01-04 22:17:10 +0000 (Sun, 04 Jan 2009) | 2 lines

Updated Slovenian holidays

------------------------------------------------------------------------
r906260 | djarvie | 2009-01-05 20:12:43 +0000 (Mon, 05 Jan 2009) | 3 lines

Fix invalid alarm remaining in calendar when pre-alarm action failure message
is acknowledged before the alarm is deferred.

------------------------------------------------------------------------
